dump.vcd
$date
	Wed Jul 23 14:56:47 2025
$end
$version
	QuestaSim Version 10.6c
$end
$timescale
	1ns
$end

$scope module uvm_root $end
$upscope $end

$scope module tb $end
$var reg 1 ! PCLK $end
$var reg 1 " PRESETn $end

$scope module dut $end
$var wire 1 # pclk $end
$var wire 1 $ presetn $end
$var wire 1 % paddr [31] $end
$var wire 1 & paddr [30] $end
$var wire 1 ' paddr [29] $end
$var wire 1 ( paddr [28] $end
$var wire 1 ) paddr [27] $end
$var wire 1 * paddr [26] $end
$var wire 1 + paddr [25] $end
$var wire 1 , paddr [24] $end
$var wire 1 - paddr [23] $end
$var wire 1 . paddr [22] $end
$var wire 1 / paddr [21] $end
$var wire 1 0 paddr [20] $end
$var wire 1 1 paddr [19] $end
$var wire 1 2 paddr [18] $end
$var wire 1 3 paddr [17] $end
$var wire 1 4 paddr [16] $end
$var wire 1 5 paddr [15] $end
$var wire 1 6 paddr [14] $end
$var wire 1 7 paddr [13] $end
$var wire 1 8 paddr [12] $end
$var wire 1 9 paddr [11] $end
$var wire 1 : paddr [10] $end
$var wire 1 ; paddr [9] $end
$var wire 1 < paddr [8] $end
$var wire 1 = paddr [7] $end
$var wire 1 > paddr [6] $end
$var wire 1 ? paddr [5] $end
$var wire 1 @ paddr [4] $end
$var wire 1 A paddr [3] $end
$var wire 1 B paddr [2] $end
$var wire 1 C paddr [1] $end
$var wire 1 D paddr [0] $end
$var wire 1 E pwdata [31] $end
$var wire 1 F pwdata [30] $end
$var wire 1 G pwdata [29] $end
$var wire 1 H pwdata [28] $end
$var wire 1 I pwdata [27] $end
$var wire 1 J pwdata [26] $end
$var wire 1 K pwdata [25] $end
$var wire 1 L pwdata [24] $end
$var wire 1 M pwdata [23] $end
$var wire 1 N pwdata [22] $end
$var wire 1 O pwdata [21] $end
$var wire 1 P pwdata [20] $end
$var wire 1 Q pwdata [19] $end
$var wire 1 R pwdata [18] $end
$var wire 1 S pwdata [17] $end
$var wire 1 T pwdata [16] $end
$var wire 1 U pwdata [15] $end
$var wire 1 V pwdata [14] $end
$var wire 1 W pwdata [13] $end
$var wire 1 X pwdata [12] $end
$var wire 1 Y pwdata [11] $end
$var wire 1 Z pwdata [10] $end
$var wire 1 [ pwdata [9] $end
$var wire 1 \ pwdata [8] $end
$var wire 1 ] pwdata [7] $end
$var wire 1 ^ pwdata [6] $end
$var wire 1 _ pwdata [5] $end
$var wire 1 ` pwdata [4] $end
$var wire 1 a pwdata [3] $end
$var wire 1 b pwdata [2] $end
$var wire 1 c pwdata [1] $end
$var wire 1 d pwdata [0] $end
$var wire 1 e psel $end
$var wire 1 f pwrite $end
$var wire 1 g penable $end
$var wire 1 h prdata [31] $end
$var wire 1 i prdata [30] $end
$var wire 1 j prdata [29] $end
$var wire 1 k prdata [28] $end
$var wire 1 l prdata [27] $end
$var wire 1 m prdata [26] $end
$var wire 1 n prdata [25] $end
$var wire 1 o prdata [24] $end
$var wire 1 p prdata [23] $end
$var wire 1 q prdata [22] $end
$var wire 1 r prdata [21] $end
$var wire 1 s prdata [20] $end
$var wire 1 t prdata [19] $end
$var wire 1 u prdata [18] $end
$var wire 1 v prdata [17] $end
$var wire 1 w prdata [16] $end
$var wire 1 x prdata [15] $end
$var wire 1 y prdata [14] $end
$var wire 1 z prdata [13] $end
$var wire 1 { prdata [12] $end
$var wire 1 | prdata [11] $end
$var wire 1 } prdata [10] $end
$var wire 1 ~ prdata [9] $end
$var wire 1 !! prdata [8] $end
$var wire 1 "! prdata [7] $end
$var wire 1 #! prdata [6] $end
$var wire 1 $! prdata [5] $end
$var wire 1 %! prdata [4] $end
$var wire 1 &! prdata [3] $end
$var wire 1 '! prdata [2] $end
$var wire 1 (! prdata [1] $end
$var wire 1 )! prdata [0] $end
$var reg 4 *! cntrl [3:0] $end
$var reg 32 +! reg1 [31:0] $end
$var reg 32 ,! reg2 [31:0] $end
$var reg 32 -! reg3 [31:0] $end
$var reg 32 .! reg4 [31:0] $end
$var reg 32 /! rdata_tmp [31:0] $end
$upscope $end
$upscope $end

$scope begin uvm_pkg $end
$var parameter 32 0! UVM_HDL_MAX_WIDTH $end
$var parameter 32 1! UVM_STREAMBITS $end
$var parameter 32 2! UVM_RADIX $end
$var parameter 32 3! UVM_MACRO_NUMFLAGS $end
$var parameter 32 4! UVM_DEFAULT $end
$var parameter 32 5! UVM_ALL_ON $end
$var parameter 32 6! UVM_FLAGS_ON $end
$var parameter 32 7! UVM_FLAGS_OFF $end
$var parameter 32 8! UVM_COPY $end
$var parameter 32 9! UVM_NOCOPY $end
$var parameter 32 :! UVM_COMPARE $end
$var parameter 32 ;! UVM_NOCOMPARE $end
$var parameter 32 <! UVM_PRINT $end
$var parameter 32 =! UVM_NOPRINT $end
$var parameter 32 >! UVM_RECORD $end
$var parameter 32 ?! UVM_NORECORD $end
$var parameter 32 @! UVM_PACK $end
$var parameter 32 A! UVM_NOPACK $end
$var parameter 32 B! UVM_PHYSICAL $end
$var parameter 32 C! UVM_ABSTRACT $end
$var parameter 32 D! UVM_READONLY $end
$var parameter 32 E! UVM_NODEFPRINT $end
$var parameter 32 F! UVM_MACRO_EXTRAS $end
$var parameter 32 G! UVM_FLAGS $end
$var parameter 32 H! UVM_UNPACK $end
$var parameter 32 I! UVM_CHECK_FIELDS $end
$var parameter 32 J! UVM_END_DATA_EXTRA $end
$var parameter 32 K! UVM_START_FUNCS $end
$var parameter 32 L! UVM_SET $end
$var parameter 32 M! UVM_SETINT $end
$var parameter 32 N! UVM_SETOBJ $end
$var parameter 32 O! UVM_SETSTR $end
$var parameter 32 P! UVM_END_FUNCS $end
$var parameter 32 Q! UVM_STR_CRC_POLYNOMIAL $end
$var parameter 32 R! UVM_STDOUT $end
$var parameter 32 S! UVM_LINE_WIDTH $end
$var parameter 32 T! UVM_NUM_LINES $end
$var parameter 32 U! UVM_SMALL_STRING $end
$var parameter 32 V! UVM_LARGE_STRING $end
$var reg 1 W! uvm_start_uvm_declarations $end
$var integer 32 X! uvm_global_random_seed $end
$var integer 32 Y! UVM_UNBOUNDED_CONNECTIONS $end

$scope function uvm_hdl_check_path $end
$var integer 32 Z! uvm_hdl_check_path $end
$upscope $end

$scope function uvm_hdl_deposit $end
$var integer 32 [! uvm_hdl_deposit $end
$var reg 1024 \! value [1023:0] $end
$upscope $end

$scope function uvm_hdl_force $end
$var integer 32 ]! uvm_hdl_force $end
$var reg 1024 ^! value [1023:0] $end
$upscope $end

$scope task uvm_hdl_force_time $end
$var reg 1024 _! value [1023:0] $end
$var time 64 `! force_time $end
$upscope $end

$scope function uvm_hdl_release_and_read $end
$var integer 32 a! uvm_hdl_release_and_read $end
$var reg 1024 b! value [1023:0] $end
$upscope $end

$scope function uvm_hdl_release $end
$var integer 32 c! uvm_hdl_release $end
$upscope $end

$scope function uvm_hdl_read $end
$var integer 32 d! uvm_hdl_read $end
$var reg 1024 e! value [1023:0] $end
$upscope $end

$scope function uvm_dpi_get_next_arg_c $end
$upscope $end

$scope function uvm_dpi_get_tool_name_c $end
$upscope $end

$scope function uvm_dpi_get_tool_version_c $end
$upscope $end

$scope function uvm_dpi_get_next_arg $end
$upscope $end

$scope function uvm_dpi_get_tool_name $end
$upscope $end

$scope function uvm_dpi_get_tool_version $end
$upscope $end

$scope function uvm_dpi_regcomp $end
$upscope $end

$scope function uvm_dpi_regexec $end
$var integer 32 f! uvm_dpi_regexec $end
$upscope $end

$scope function uvm_dpi_regfree $end
$upscope $end

$scope function uvm_re_match $end
$var integer 32 g! uvm_re_match $end
$upscope $end

$scope function uvm_dump_re_cache $end
$upscope $end

$scope function uvm_glob_to_re $end
$upscope $end

$scope function uvm_revision_string $end
$upscope $end

$scope function uvm_radix_to_string $end
$var integer 32 h! radix $end
$upscope $end

$scope function uvm_instance_scope $end
$var reg 8 i! c [7:0] $end
$var integer 32 j! pos $end
$upscope $end

$scope function uvm_oneway_hash $end
$var integer 32 k! uvm_oneway_hash $end
$var integer 32 l! seed $end
$var reg 1 m! msb $end
$var reg 8 n! current_byte [7:0] $end
$var reg 32 o! crc1 [31:0] $end
$upscope $end

$scope function uvm_create_random_seed $end
$var integer 32 p! uvm_create_random_seed $end
$upscope $end

$scope function uvm_object_value_str $end
$upscope $end

$scope function uvm_leaf_scope $end
$var reg 8 q! scope_separator [7:0] $end
$var reg 8 r! bracket_match [7:0] $end
$var integer 32 s! pos $end
$var integer 32 t! bmatches $end
$upscope $end

$scope function uvm_vector_to_string $end
$var reg 4096 u! value [4095:0] $end
$var integer 32 v! size $end
$var integer 32 w! radix $end
$upscope $end

$scope function uvm_get_array_index_int $end
$var integer 32 x! uvm_get_array_index_int $end
$var reg 1 y! is_wildcard $end
$var integer 32 z! i $end
$upscope $end

$scope function uvm_get_array_index_string $end
$var reg 1 {! is_wildcard $end
$var integer 32 |! i $end
$upscope $end

$scope function uvm_is_array $end
$var reg 1 }! uvm_is_array $end
$upscope $end

$scope function uvm_has_wildcard $end
$upscope $end

$scope task run_test $end
$upscope $end

$scope function global_stop_request $end
$upscope $end

$scope function set_global_timeout $end
$var time 64 ~! timeout $end
$var reg 1 !" overridable $end
$upscope $end

$scope function set_global_stop_timeout $end
$var time 64 "" timeout $end
$upscope $end

$scope function uvm_report_enabled $end
$var reg 1 #" uvm_report_enabled $end
$var integer 32 $" verbosity $end
$var reg 2 %" severity [1:0] $end
$upscope $end

$scope function uvm_report $end
$var reg 2 &" severity [1:0] $end
$var integer 32 '" verbosity $end
$var integer 32 (" line $end
$upscope $end

$scope function uvm_report_info $end
$var integer 32 )" verbosity $end
$var integer 32 *" line $end
$upscope $end

$scope function uvm_report_warning $end
$var integer 32 +" verbosity $end
$var integer 32 ," line $end
$upscope $end

$scope function uvm_report_error $end
$var integer 32 -" verbosity $end
$var integer 32 ." line $end
$upscope $end

$scope function uvm_report_fatal $end
$var integer 32 /" verbosity $end
$var integer 32 0" line $end
$upscope $end

$scope function uvm_string_to_severity $end
$var reg 1 1" uvm_string_to_severity $end
$var reg 2 2" sev [1:0] $end
$upscope $end

$scope function uvm_string_to_action $end
$upscope $end

$scope function set_config_int $end
$var reg 4096 3" value [4095:0] $end
$upscope $end

$scope function set_config_object $end
$var reg 1 4" clone $end
$upscope $end

$scope function set_config_string $end
$upscope $end

$scope function uvm_is_match $end
$var reg 1 5" uvm_is_match $end
$upscope $end

$scope function uvm_string_to_bits $end
$var reg 115200 6" uvm_string_to_bits [115199:0] $end
$upscope $end

$scope function uvm_bits_to_string $end
$var reg 115200 7" str [115199:0] $end
$upscope $end

$scope task uvm_wait_for_nba_region $end
$var integer 32 8" nba $end
$var integer 32 9" next_nba $end
$upscope $end

$scope function uvm_split_string $end
$upscope $end

$scope function uvm_hdl_concat2string $end
$upscope $end
$upscope $end

$scope begin ral_pkg $end
$upscope $end

$scope begin ral_top_sv_unit $end
$upscope $end

$scope begin std $end
$upscope $end

$scope begin questa_uvm_pkg $end
$upscope $end
$enddefinitions $end
#0
$dumpvars
0!
1"
b0 *!
b0 +!
b0 ,!
b0 -!
b0 .!
b0 /!
0{!
0}!
01"
b0 2"
bx 6"
bx 7"
bx \!
bx ^!
bx _!
bx b!
bx e!
1W!
0m!
b1100010 n!
b11100101100010111110011001010 o!
bx u!
0y!
0!"
0#"
b0 %"
b0 &"
bx 3"
04"
05"
b10000000000 0!
b1000000000000 1!
b1111000000000000000000000000 2!
b10001 3!
b10101010101 4!
b101010101 5!
b101010101 6!
b0 7!
b1 8!
b10 9!
b100 :!
b1000 ;!
b10000 <!
b100000 =!
b1000000 >!
b10000000 ?!
b100000000 @!
b1000000000 A!
b10000000000000 B!
b100000000000000 C!
b1000000000000000 D!
b10000000000000000 E!
b100000000000000000 F!
b100000000000000001 G!
b100000000000000010 H!
b100000000000000011 I!
b100000000000000100 J!
b100000000000000101 K!
b100000000000000110 L!
b100000000000000110 M!
b100000000000000111 N!
b100000000000001000 O!
b100000000000001000 P!
b100110000010001110110110110 Q!
b1 R!
b1111000 S!
b1111000 T!
b1110111111 U!
b11100000111111111 V!
b0 h!
b0 q!
b0 r!
b0 s!
b0 t!
b0 |!
b0 Z!
b0 [!
b0 ]!
b0 a!
b0 c!
b0 d!
b1 f!
b0 g!
b1101001011000001111100000011110 X!
b101110 i!
b111 j!
b10011110111001000100011100000001 k!
b1101001011000001111100000011110 l!
b101000100011000111011011010000 p!
b0 v!
b0 w!
b0 x!
b0 z!
b111110100 $"
b0 '"
b0 ("
b11001000 )"
b11011001 *"
b0 +"
b0 ,"
b0 -"
b0 ."
b0 /"
b0 0"
b100100 8"
b100100 9"
b11111111111111111111111111111111 Y!
bx `!
bx ~!
bx ""
0#
1$
xe
xg
xf
xD
xC
xB
xA
xd
xc
xb
xa
x`
x_
x^
x]
x\
x[
xZ
xY
xX
xW
xV
xU
xT
xS
xR
xQ
xP
xO
xN
xM
xL
xK
xJ
xI
xH
xG
xF
xE
0)!
0(!
0'!
0&!
0%!
0$!
0#!
0"!
0!!
0~
0}
0|
0{
0z
0y
0x
0w
0v
0u
0t
0s
0r
0q
0p
0o
0n
0m
0l
0k
0j
0i
0h
z@
z?
z>
z=
z<
z;
z:
z9
z8
z7
z6
z5
z4
z3
z2
z1
z0
z/
z.
z-
z,
z+
z*
z)
z(
z'
z&
z%
$end
#5
1!
1#
1f
1d
0c
1b
0a
0`
0_
0^
0]
0\
0[
0Z
0Y
0X
0W
0V
0U
0T
0S
0R
0Q
0P
0O
0N
0M
0L
0K
0J
0I
0H
0G
0F
0E
0D
0C
1B
0A
#10
0"
0!
0$
0#
#15
1!
1#
b1011010010110100101010101010101 +!
b10010001101001001100001110110 ,!
b10100101101001010000000000000000 -!
b1111111111111111 .!
#20
0!
0#
#25
1!
1#
b100101 9"
b110010000 $"
b100101100 $"
b110010000 $"
b10011110111001000100011100000010 p!
b100101 8"
#30
0!
0#
#35
1!
1#
0f
#40
0!
0#
#45
1!
1#
#50
0!
0#
#55
1!
1#
b100110 9"
b100101100 $"
b100110 8"
#60
0!
0#
#65
1!
1#
#70
0!
0#
#75
1!
1#
b100111 9"
b111110100 $"
b101000 9"
b100111 8"
b101000 8"
b101001 9"
b101010 9"
b101001 8"
b101010 8"
b101000100011000111011011100010 p!
b1001010010110100100011111011110 p!
b10100100100101000100111000010010 p!
b110111010101111000001011110100 p!
b1100110000110011001111110110011 p!
b11010101111101111110101111110110 p!
b1011011001010110101010100100000 p!
b1111011101110110100111101110001 p!
b10111000100001100111110000000101 p!
b10011101001010111001110100110101 p!
b10010111110011100100110001110111 p!
b1010000110111101110100101010010 p!
b1010010011000110101010011110 p!
b11010111001111010110001110101011 p!
b11000111000110010101101001011101 p!
b1111100011100011100100000110000 p!
b11111000011000101101101100001000 p!
b10111110001010001000110010000101 p!
b101011011010101010011011 p!
b1111111111010000001000100111101 p!
b101010001011001011011100010001 p!
b11010101111001001011000100111110 p!
b11100010011111001011010001101100 p!
b111000011000110011100110101111 p!
b11011100000111001000010000111110 p!
b101000100011000111011011110101 p!
b1001010010110100100011111110001 p!
b10100100100101000100111000100101 p!
b110111010101111000001100000111 p!
b1100110000110011001111111000110 p!
b11010101111101111110110000001001 p!
b1011011001010110101010100110011 p!
b1111011101110110100111110000100 p!
b10111000100001100111110000011000 p!
b10011101001010111001110101001000 p!
b10010111110011100100110010001010 p!
b1010000110111101110100101100101 p!
b1010010011000110101010110001 p!
b11010111001111010110001110111110 p!
b11000111000110010101101001110000 p!
b1111100011100011100100001000011 p!
b11111000011000101101101100011011 p!
b10111110001010001000110010011000 p!
b101011011010101010101110 p!
b1111111111010000001000101010000 p!
b101010001011001011011100100100 p!
b11010101111001001011000101010001 p!
b11100010011111001011010001111111 p!
b111000011000110011100111000010 p!
b11011100000111001000010001010001 p!
b101000100011000111011100001001 p!
b1001010010110100100100000000101 p!
b10100100100101000100111000111001 p!
b110111010101111000001100011011 p!
b1100110000110011001111111011010 p!
b11010101111101111110110000011101 p!
b1011011001010110101010101000111 p!
b1111011101110110100111110011000 p!
b10111000100001100111110000101100 p!
b10011101001010111001110101011100 p!
b10010111110011100100110010011110 p!
b1010000110111101110100101111001 p!
b1010010011000110101011000101 p!
b11010111001111010110001111010010 p!
b11000111000110010101101010000100 p!
b1111100011100011100100001010111 p!
b11111000011000101101101100101111 p!
b10111110001010001000110010101100 p!
b101011011010101011000010 p!
b1111111111010000001000101100100 p!
b101010001011001011011100111000 p!
b11010101111001001011000101100101 p!
b11100010011111001011010010010011 p!
b111000011000110011100111010110 p!
b11011100000111001000010001100101 p!
b11011100000111001000010001111010 p!
b111000011000110011100111101011 p!
b11100010011111001011010010101000 p!
b1111111111010000001000101111001 p!
b10100100100101000100111001001110 p!
b101000100011000111011100011110 p!
b1001010010110100100100000011010 p!
b1100110000110011001111111101111 p!
b110111010101111000001100110000 p!
b101011011010101011010111 p!
b10011101001010111001110101110001 p!
b11010101111101111110110000110010 p!
b1011011001010110101010101011100 p!
b1111011101110110100111110101101 p!
b10111000100001100111110001000001 p!
b10010111110011100100110010110011 p!
b1010000110111101110100110001110 p!
b10111110001010001000110011000001 p!
b1010010011000110101011011010 p!
b11010111001111010110001111100111 p!
b11000111000110010101101010011001 p!
b1111100011100011100100001101100 p!
b11111000011000101101101101000100 p!
b11010101111001001011000101111010 p!
b101010001011001011011101001101 p!
